%YAML 1.1
%TAG !u! tag:unity3d.com,2011:
--- !u!1 &737645783
GameObject:
  m_ObjectHideFlags: 0
  m_CorrespondingSourceObject: {fileID: 0}
  m_PrefabInstance: {fileID: 0}
  m_PrefabAsset: {fileID: 0}
  serializedVersion: 6
  m_Component:
  - component: {fileID: 737645784}
  - component: {fileID: 737645785}
  m_Layer: 0
  m_Name: Point Light
  m_TagString: Untagged
  m_Icon: {fileID: 0}
  m_NavMeshLayer: 0
  m_StaticEditorFlags: 0
  m_IsActive: 1
--- !u!4 &737645784
Transform:
  m_ObjectHideFlags: 0
  m_CorrespondingSourceObject: {fileID: 0}
  m_PrefabInstance: {fileID: 0}
  m_PrefabAsset: {fileID: 0}
  m_GameObject: {fileID: 737645783}
  m_LocalRotation: {x: 0, y: 0, z: 0, w: 1}
  m_LocalPosition: {x: 0, y: 0, z: 0}
  m_LocalScale: {x: 1, y: 1, z: 1}
  m_Children: []
  m_Father: {fileID: 2924482569848621874}
  m_RootOrder: 0
  m_LocalEulerAnglesHint: {x: 0, y: 0, z: 0}
--- !u!108 &737645785
Light:
  m_ObjectHideFlags: 0
  m_CorrespondingSourceObject: {fileID: 0}
  m_PrefabInstance: {fileID: 0}
  m_PrefabAsset: {fileID: 0}
  m_GameObject: {fileID: 737645783}
  m_Enabled: 1
  serializedVersion: 8
  m_Type: 2
  m_Color: {r: 1, g: 0.8754449, b: 0.2971698, a: 1}
  m_Intensity: 1.5
  m_Range: 15
  m_SpotAngle: 30
  m_CookieSize: 10
  m_Shadows:
    m_Type: 0
    m_Resolution: -1
    m_CustomResolution: -1
    m_Strength: 1
    m_Bias: 0.05
    m_NormalBias: 0.4
    m_NearPlane: 0.2
  m_Cookie: {fileID: 0}
  m_DrawHalo: 0
  m_Flare: {fileID: 0}
  m_RenderMode: 0
  m_CullingMask:
    serializedVersion: 2
    m_Bits: 4294967295
  m_Lightmapping: 4
  m_LightShadowCasterMode: 0
  m_AreaSize: {x: 1, y: 1}
  m_BounceIntensity: 0
  m_ColorTemperature: 6570
  m_UseColorTemperature: 0
  m_ShadowRadius: 0
  m_ShadowAngle: 0
--- !u!1001 &2924482569848230320
PrefabInstance:
  m_ObjectHideFlags: 0
  serializedVersion: 2
  m_Modification:
    m_TransformParent: {fileID: 2924482570055945070}
    m_Modifications:
    - target: {fileID: 100006, guid: a4d27f49a858d8c4ab6ab68f9410d43d, type: 3}
      propertyPath: m_Name
      value: Lantern
      objectReference: {fileID: 0}
    - target: {fileID: 400006, guid: a4d27f49a858d8c4ab6ab68f9410d43d, type: 3}
      propertyPath: m_LocalPosition.x
      value: 1.2854767
      objectReference: {fileID: 0}
    - target: {fileID: 400006, guid: a4d27f49a858d8c4ab6ab68f9410d43d, type: 3}
      propertyPath: m_LocalPosition.y
      value: 3.797499
      objectReference: {fileID: 0}
    - target: {fileID: 400006, guid: a4d27f49a858d8c4ab6ab68f9410d43d, type: 3}
      propertyPath: m_LocalPosition.z
      value: -5.68715
      objectReference: {fileID: 0}
    - target: {fileID: 400006, guid: a4d27f49a858d8c4ab6ab68f9410d43d, type: 3}
      propertyPath: m_LocalRotation.x
      value: 0.10802784
      objectReference: {fileID: 0}
    - target: {fileID: 400006, guid: a4d27f49a858d8c4ab6ab68f9410d43d, type: 3}
      propertyPath: m_LocalRotation.y
      value: -0.9491129
      objectReference: {fileID: 0}
    - target: {fileID: 400006, guid: a4d27f49a858d8c4ab6ab68f9410d43d, type: 3}
      propertyPath: m_LocalRotation.z
      value: -0.075316556
      objectReference: {fileID: 0}
    - target: {fileID: 400006, guid: a4d27f49a858d8c4ab6ab68f9410d43d, type: 3}
      propertyPath: m_LocalRotation.w
      value: 0.28608075
      objectReference: {fileID: 0}
    - target: {fileID: 400006, guid: a4d27f49a858d8c4ab6ab68f9410d43d, type: 3}
      propertyPath: m_RootOrder
      value: 7
      objectReference: {fileID: 0}
    - target: {fileID: 400006, guid: a4d27f49a858d8c4ab6ab68f9410d43d, type: 3}
      propertyPath: m_LocalEulerAnglesHint.x
      value: 0
      objectReference: {fileID: 0}
    - target: {fileID: 400006, guid: a4d27f49a858d8c4ab6ab68f9410d43d, type: 3}
      propertyPath: m_LocalEulerAnglesHint.y
      value: -51.506004
      objectReference: {fileID: 0}
    - target: {fileID: 400006, guid: a4d27f49a858d8c4ab6ab68f9410d43d, type: 3}
      propertyPath: m_LocalEulerAnglesHint.z
      value: 0
      objectReference: {fileID: 0}
    - target: {fileID: 400006, guid: a4d27f49a858d8c4ab6ab68f9410d43d, type: 3}
      propertyPath: m_LocalScale.x
      value: 0.21538265
      objectReference: {fileID: 0}
    - target: {fileID: 400006, guid: a4d27f49a858d8c4ab6ab68f9410d43d, type: 3}
      propertyPath: m_LocalScale.y
      value: 0.21538273
      objectReference: {fileID: 0}
    - target: {fileID: 400006, guid: a4d27f49a858d8c4ab6ab68f9410d43d, type: 3}
      propertyPath: m_LocalScale.z
      value: 0.21538264
      objectReference: {fileID: 0}
    - target: {fileID: 2300000, guid: a4d27f49a858d8c4ab6ab68f9410d43d, type: 3}
      propertyPath: m_Materials.Array.data[0]
      value: 
      objectReference: {fileID: 2100000, guid: 1434ae543aebfe14389db2cd653a4740, type: 2}
    - target: {fileID: 2300002, guid: a4d27f49a858d8c4ab6ab68f9410d43d, type: 3}
      propertyPath: m_Materials.Array.data[0]
      value: 
      objectReference: {fileID: 2100000, guid: 8a7ac860d4b88f84eb3338ce2fb27294, type: 2}
    - target: {fileID: 2300004, guid: a4d27f49a858d8c4ab6ab68f9410d43d, type: 3}
      propertyPath: m_Materials.Array.data[0]
      value: 
      objectReference: {fileID: 2100000, guid: 1434ae543aebfe14389db2cd653a4740, type: 2}
    m_RemovedComponents: []
  m_SourcePrefab: {fileID: 100100000, guid: a4d27f49a858d8c4ab6ab68f9410d43d, type: 3}
--- !u!4 &2924482569848621874 stripped
Transform:
  m_CorrespondingSourceObject: {fileID: 400002, guid: a4d27f49a858d8c4ab6ab68f9410d43d,
    type: 3}
  m_PrefabInstance: {fileID: 2924482569848230320}
  m_PrefabAsset: {fileID: 0}
--- !u!1001 &2924482570056339936
PrefabInstance:
  m_ObjectHideFlags: 0
  serializedVersion: 2
  m_Modification:
    m_TransformParent: {fileID: 0}
    m_Modifications:
    - target: {fileID: 100014, guid: bcb1590b5af31c942937f62f0c20e799, type: 3}
      propertyPath: m_Name
      value: Fence
      objectReference: {fileID: 0}
    - target: {fileID: 400014, guid: bcb1590b5af31c942937f62f0c20e799, type: 3}
      propertyPath: m_LocalPosition.x
      value: 327.17523
      objectReference: {fileID: 0}
    - target: {fileID: 400014, guid: bcb1590b5af31c942937f62f0c20e799, type: 3}
      propertyPath: m_LocalPosition.y
      value: 14.600702
      objectReference: {fileID: 0}
    - target: {fileID: 400014, guid: bcb1590b5af31c942937f62f0c20e799, type: 3}
      propertyPath: m_LocalPosition.z
      value: 415.85358
      objectReference: {fileID: 0}
    - target: {fileID: 400014, guid: bcb1590b5af31c942937f62f0c20e799, type: 3}
      propertyPath: m_LocalRotation.x
      value: -0.13002247
      objectReference: {fileID: 0}
    - target: {fileID: 400014, guid: bcb1590b5af31c942937f62f0c20e799, type: 3}
      propertyPath: m_LocalRotation.y
      value: 0.7305436
      objectReference: {fileID: 0}
    - target: {fileID: 400014, guid: bcb1590b5af31c942937f62f0c20e799, type: 3}
      propertyPath: m_LocalRotation.z
      value: 0.020898659
      objectReference: {fileID: 0}
    - target: {fileID: 400014, guid: bcb1590b5af31c942937f62f0c20e799, type: 3}
      propertyPath: m_LocalRotation.w
      value: 0.67004734
      objectReference: {fileID: 0}
    - target: {fileID: 400014, guid: bcb1590b5af31c942937f62f0c20e799, type: 3}
      propertyPath: m_RootOrder
      value: 0
      objectReference: {fileID: 0}
    - target: {fileID: 400014, guid: bcb1590b5af31c942937f62f0c20e799, type: 3}
      propertyPath: m_LocalEulerAnglesHint.x
      value: -11.816001
      objectReference: {fileID: 0}
    - target: {fileID: 400014, guid: bcb1590b5af31c942937f62f0c20e799, type: 3}
      propertyPath: m_LocalEulerAnglesHint.y
      value: 95.934006
      objectReference: {fileID: 0}
    - target: {fileID: 400014, guid: bcb1590b5af31c942937f62f0c20e799, type: 3}
      propertyPath: m_LocalEulerAnglesHint.z
      value: -9.525001
      objectReference: {fileID: 0}
    - target: {fileID: 400014, guid: bcb1590b5af31c942937f62f0c20e799, type: 3}
      propertyPath: m_LocalScale.x
      value: 0.10000007
      objectReference: {fileID: 0}
    - target: {fileID: 400014, guid: bcb1590b5af31c942937f62f0c20e799, type: 3}
      propertyPath: m_LocalScale.y
      value: 0.09999999
      objectReference: {fileID: 0}
    - target: {fileID: 400014, guid: bcb1590b5af31c942937f62f0c20e799, type: 3}
      propertyPath: m_LocalScale.z
      value: 0.100000076
      objectReference: {fileID: 0}
    m_RemovedComponents: []
  m_SourcePrefab: {fileID: 100100000, guid: bcb1590b5af31c942937f62f0c20e799, type: 3}
--- !u!4 &2924482570055945070 stripped
Transform:
  m_CorrespondingSourceObject: {fileID: 400014, guid: bcb1590b5af31c942937f62f0c20e799,
    type: 3}
  m_PrefabInstance: {fileID: 2924482570056339936}
  m_PrefabAsset: {fileID: 0}
