%YAML 1.1
%TAG !u! tag:unity3d.com,2011:
--- !u!208 &1654517350
NavMeshObstacle:
  m_ObjectHideFlags: 0
  m_CorrespondingSourceObject: {fileID: 0}
  m_PrefabInstance: {fileID: 0}
  m_PrefabAsset: {fileID: 0}
  m_GameObject: {fileID: 2565119233220739649}
  m_Enabled: 1
  serializedVersion: 3
  m_Shape: 1
  m_Extents: {x: 4.5, y: 4.5, z: 25}
  m_MoveThreshold: 0.1
  m_Carve: 0
  m_CarveOnlyStationary: 1
  m_Center: {x: 0.010000001, y: 0.40300003, z: 24.974}
  m_TimeToStationary: 0.5
--- !u!1001 &6412504832820232072
PrefabInstance:
  m_ObjectHideFlags: 0
  serializedVersion: 2
  m_Modification:
    m_TransformParent: {fileID: 0}
    m_Modifications:
    - target: {fileID: 8891488238932114889, guid: ec7fc73a4499dbe40958ad8331693356,
        type: 3}
      propertyPath: m_Name
      value: Tree2
      objectReference: {fileID: 0}
    - target: {fileID: 8891488238932009449, guid: ec7fc73a4499dbe40958ad8331693356,
        type: 3}
      propertyPath: m_LocalPosition.x
      value: 239.55
      objectReference: {fileID: 0}
    - target: {fileID: 8891488238932009449, guid: ec7fc73a4499dbe40958ad8331693356,
        type: 3}
      propertyPath: m_LocalPosition.y
      value: 7.01
      objectReference: {fileID: 0}
    - target: {fileID: 8891488238932009449, guid: ec7fc73a4499dbe40958ad8331693356,
        type: 3}
      propertyPath: m_LocalPosition.z
      value: 297.17
      objectReference: {fileID: 0}
    - target: {fileID: 8891488238932009449, guid: ec7fc73a4499dbe40958ad8331693356,
        type: 3}
      propertyPath: m_LocalRotation.x
      value: -0.7071068
      objectReference: {fileID: 0}
    - target: {fileID: 8891488238932009449, guid: ec7fc73a4499dbe40958ad8331693356,
        type: 3}
      propertyPath: m_LocalRotation.y
      value: 0
      objectReference: {fileID: 0}
    - target: {fileID: 8891488238932009449, guid: ec7fc73a4499dbe40958ad8331693356,
        type: 3}
      propertyPath: m_LocalRotation.z
      value: -0
      objectReference: {fileID: 0}
    - target: {fileID: 8891488238932009449, guid: ec7fc73a4499dbe40958ad8331693356,
        type: 3}
      propertyPath: m_LocalRotation.w
      value: 0.7071068
      objectReference: {fileID: 0}
    - target: {fileID: 8891488238932009449, guid: ec7fc73a4499dbe40958ad8331693356,
        type: 3}
      propertyPath: m_RootOrder
      value: 0
      objectReference: {fileID: 0}
    - target: {fileID: 8891488238932009449, guid: ec7fc73a4499dbe40958ad8331693356,
        type: 3}
      propertyPath: m_LocalEulerAnglesHint.x
      value: 0
      objectReference: {fileID: 0}
    - target: {fileID: 8891488238932009449, guid: ec7fc73a4499dbe40958ad8331693356,
        type: 3}
      propertyPath: m_LocalEulerAnglesHint.y
      value: 0
      objectReference: {fileID: 0}
    - target: {fileID: 8891488238932009449, guid: ec7fc73a4499dbe40958ad8331693356,
        type: 3}
      propertyPath: m_LocalEulerAnglesHint.z
      value: 0
      objectReference: {fileID: 0}
    m_RemovedComponents: []
  m_SourcePrefab: {fileID: 100100000, guid: ec7fc73a4499dbe40958ad8331693356, type: 3}
--- !u!1 &2565119233220739649 stripped
GameObject:
  m_CorrespondingSourceObject: {fileID: 8891488238932114889, guid: ec7fc73a4499dbe40958ad8331693356,
    type: 3}
  m_PrefabInstance: {fileID: 6412504832820232072}
  m_PrefabAsset: {fileID: 0}
