# 3ds Max Wavefront OBJ Exporter v0.97b - (c)2007 guruware
# File Created: 22.02.2020 16:48:23

mtllib FountainWater.mtl

#
# object Cylinder002
#

v  11.0345 29.9993 11.0011
v  -0.0580 29.9993 15.5958
v  -11.1505 29.9993 11.0011
v  -15.7451 29.9993 -0.0913
v  -11.1505 29.9993 -11.1838
v  -0.0580 29.9993 -15.7785
v  11.0345 29.9993 -11.1838
v  15.6291 29.9993 -0.0913
v  11.0345 30.4908 -11.1838
v  15.6291 30.4908 -0.0913
v  -0.0580 30.4908 -15.7785
v  -11.1505 30.4908 -11.1838
v  -15.7451 30.4908 -0.0913
v  -11.1505 30.4908 11.0011
v  -0.0580 30.4908 15.5958
v  11.0345 30.4908 11.0011
# 16 vertices

vn 0.5490 -0.6303 0.5490
vn -0.0000 -0.6303 0.7764
vn -0.5490 -0.6303 0.5490
vn -0.7764 -0.6303 0.0000
vn -0.5490 -0.6303 -0.5490
vn -0.0000 -0.6303 -0.7764
vn 0.5490 -0.6303 -0.5490
vn 0.7764 -0.6303 -0.0000
vn 0.5490 0.6303 -0.5490
vn 0.7764 0.6303 -0.0000
vn -0.0000 0.6303 -0.7764
vn -0.5490 0.6303 -0.5490
vn -0.7764 0.6303 0.0000
vn -0.5490 0.6303 0.5490
vn -0.0000 0.6303 0.7764
vn 0.5490 0.6303 0.5490
# 16 vertex normals

vt 0.4786 0.0000 0.4142
vt 0.2197 0.0000 -0.4142
vt 0.1250 0.0000 -1.0000
vt 0.2500 0.0000 -1.0000
vt 0.5214 0.0000 -0.4142
vt 0.7803 0.0000 0.4142
vt 0.8750 0.0000 1.0000
vt 0.7500 0.0000 1.0000
vt 0.8750 0.0688 1.0000
vt 0.7500 0.0688 1.0000
vt -0.1250 0.0000 1.0000
vt 0.0000 0.0000 1.0000
vt 0.0000 0.0688 1.0000
vt -0.1250 0.0688 1.0000
vt 0.1250 0.0000 1.0000
vt 0.1250 0.0688 1.0000
vt 0.2500 0.0000 1.0000
vt 0.2500 0.0688 1.0000
vt 0.3750 0.0000 1.0000
vt 0.3750 0.0688 1.0000
vt 0.5000 0.0000 1.0000
vt 0.5000 0.0688 1.0000
vt 0.6250 0.0000 1.0000
vt 0.6250 0.0688 1.0000
# 24 texture coords

o Cylinder002
g Cylinder002
usemtl wire_255255255
s 1
f 1/1/1 2/2/2 3/3/3 4/4/4 5/5/5 6/6/6 7/7/7 8/8/8 
s 8
f 8/8/8 7/7/7 9/9/9 10/10/10 
f 7/11/7 6/12/6 11/13/11 9/14/9 
f 6/12/6 5/15/5 12/16/12 11/13/11 
f 5/15/5 4/17/4 13/18/13 12/16/12 
f 4/17/4 3/19/3 14/20/14 13/18/13 
f 3/19/3 2/21/2 15/22/15 14/20/14 
f 2/21/2 1/23/1 16/24/16 15/22/15 
f 1/23/1 8/8/8 10/10/10 16/24/16 
s off
f 9/9/9 11/13/11 12/16/12 13/18/13 14/20/14 15/22/15 16/24/16 10/10/10 
# 10 polygons

