# 3ds Max Wavefront OBJ Exporter v0.97b - (c)2007 guruware
# File Created: 22.02.2020 16:48:10

mtllib Fountain.mtl

#
# object Cylinder001
#

v  11.0345 0.0000 11.0011
v  -0.0580 0.0000 15.5958
v  -11.1505 0.0000 11.0011
v  -15.7451 0.0000 -0.0913
v  -11.1505 0.0000 -11.1838
v  -0.0580 0.0000 -15.7785
v  11.0345 0.0000 -11.1838
v  15.6291 0.0000 -0.0913
v  11.0345 7.1389 -11.1838
v  15.6291 7.1389 -0.0913
v  -0.0580 7.1389 -15.7785
v  -11.1505 7.1389 -11.1838
v  -15.7451 7.1389 -0.0913
v  -11.1505 7.1389 11.0011
v  -0.0580 7.1389 15.5958
v  11.0345 7.1389 11.0011
v  1.9682 26.9191 1.9349
v  2.8075 26.9191 -0.0913
v  1.9682 26.9191 -2.1175
v  -0.0580 26.9191 -2.9568
v  -2.0842 26.9191 -2.1175
v  -2.9235 26.9191 -0.0913
v  -2.0842 26.9191 1.9349
v  -0.0580 26.9191 2.7741
v  9.8848 2.6808 -10.0341
v  14.0032 2.6808 -0.0913
v  -0.0580 2.6808 -14.1526
v  -10.0008 2.6808 -10.0341
v  -14.1192 2.6808 -0.0913
v  -10.0008 2.6808 9.8515
v  -0.0580 2.6808 13.9699
v  9.8848 2.6808 9.8515
v  1.1229 5.1861 -1.2722
v  1.6120 5.1861 -0.0913
v  -0.0580 5.1861 -1.7613
v  -1.2389 5.1861 -1.2722
v  -1.7280 5.1861 -0.0913
v  -1.2389 5.1861 1.0895
v  -0.0580 5.1861 1.5787
v  1.1229 5.1861 1.0895
v  1.8084 6.9887 -1.9577
v  2.5814 6.9887 -0.0913
v  -0.0580 6.9887 -2.7308
v  -1.9243 6.9887 -1.9577
v  -2.6974 6.9887 -0.0913
v  -1.9243 6.9887 1.7750
v  -0.0580 6.9887 2.5481
v  1.8084 6.9887 1.7750
v  0.5479 13.2497 -0.6973
v  0.7989 13.2497 -0.0913
v  -0.0580 13.2497 -0.9483
v  -0.6639 13.2497 -0.6973
v  -0.9149 13.2497 -0.0913
v  -0.6639 13.2497 0.5146
v  -0.0580 13.2497 0.7656
v  0.5479 13.2497 0.5146
v  7.2604 14.6016 -7.4097
v  10.2918 14.6016 -0.0913
v  -0.0580 14.6016 -10.4411
v  -7.3764 14.6016 -7.4097
v  -10.4078 14.6016 -0.0913
v  -7.3764 14.6016 7.2271
v  -0.0580 14.6016 10.2584
v  7.2604 14.6016 7.2271
v  7.2604 17.9063 -7.4097
v  10.2918 17.9063 -0.0913
v  -0.0580 17.9063 -10.4411
v  -7.3764 17.9063 -7.4097
v  -10.4078 17.9063 -0.0913
v  -7.3764 17.9063 7.2271
v  -0.0580 17.9063 10.2584
v  7.2604 17.9063 7.2271
v  4.0413 15.5029 -4.1906
v  5.7393 15.5029 -0.0913
v  -0.0580 15.5029 -5.8886
v  -4.1573 15.5029 -4.1906
v  -5.8552 15.5029 -0.0913
v  -4.1573 15.5029 4.0079
v  -0.0580 15.5029 5.7059
v  4.0413 15.5029 4.0079
v  0.9265 16.8548 -1.0759
v  1.3343 16.8548 -0.0913
v  -0.0580 16.8548 -1.4837
v  -1.0425 16.8548 -1.0759
v  -1.4503 16.8548 -0.0913
v  -1.0425 16.8548 0.8932
v  -0.0580 16.8548 1.3010
v  0.9265 16.8548 0.8932
v  1.5076 19.8591 -1.6569
v  2.1560 19.8591 -0.0913
v  -0.0580 19.8591 -2.3054
v  -1.6236 19.8591 -1.6569
v  -2.2720 19.8591 -0.0913
v  -1.6236 19.8591 1.4742
v  -0.0580 19.8591 2.1227
v  1.5076 19.8591 1.4742
v  0.3597 24.5157 -0.5091
v  0.5328 24.5157 -0.0913
v  -0.0580 24.5157 -0.6821
v  -0.4757 24.5157 -0.5091
v  -0.6488 24.5157 -0.0913
v  -0.4757 24.5157 0.3264
v  -0.0580 24.5157 0.4994
v  0.3597 24.5157 0.3264
v  4.0376 25.7174 -4.1870
v  5.7341 25.7174 -0.0913
v  -0.0580 25.7174 -5.8834
v  -4.1536 25.7174 -4.1870
v  -5.8501 25.7174 -0.0913
v  -4.1536 25.7174 4.0043
v  -0.0580 25.7174 5.7007
v  4.0376 25.7174 4.0043
v  4.0376 28.4212 -4.1870
v  5.7341 28.4212 -0.0913
v  -0.0580 28.4212 -5.8834
v  -4.1536 28.4212 -4.1870
v  -5.8501 28.4212 -0.0913
v  -4.1536 28.4212 4.0043
v  -0.0580 28.4212 5.7007
v  4.0376 28.4212 4.0043
# 120 vertices

vn 0.5490 -0.6303 0.5490
vn -0.0000 -0.6303 0.7764
vn -0.5490 -0.6303 0.5490
vn -0.7764 -0.6303 0.0000
vn -0.5490 -0.6303 -0.5490
vn -0.0000 -0.6303 -0.7764
vn 0.5490 -0.6303 -0.5490
vn 0.7764 -0.6303 -0.0000
vn 0.2715 0.9234 -0.2715
vn 0.3839 0.9234 -0.0000
vn 0.0000 0.9234 -0.3839
vn -0.2715 0.9234 -0.2715
vn -0.3839 0.9234 -0.0000
vn -0.2715 0.9234 0.2715
vn 0.0000 0.9234 0.3839
vn 0.2715 0.9234 0.2715
vn -0.2041 0.9574 -0.2041
vn -0.2886 0.9574 0.0000
vn -0.2041 0.9574 0.2041
vn 0.0000 0.9574 0.2886
vn 0.2041 0.9574 0.2041
vn 0.2886 0.9574 -0.0000
vn 0.2041 0.9574 -0.2041
vn -0.0000 0.9574 -0.2886
vn -0.4198 0.8047 0.4198
vn -0.5937 0.8047 -0.0000
vn 0.0000 0.8047 0.5937
vn 0.4198 0.8047 0.4198
vn 0.5937 0.8047 -0.0000
vn 0.4198 0.8047 -0.4198
vn -0.0000 0.8047 -0.5937
vn -0.4198 0.8047 -0.4198
vn 0.6022 0.5240 -0.6022
vn 0.8517 0.5240 -0.0000
vn 0.0000 0.5240 -0.8517
vn -0.6022 0.5240 -0.6022
vn -0.8517 0.5240 0.0000
vn -0.6022 0.5240 0.6022
vn -0.0000 0.5240 0.8517
vn 0.6022 0.5240 0.6022
vn 0.7036 -0.0992 -0.7036
vn 0.9951 -0.0992 -0.0000
vn -0.0000 -0.0992 -0.9951
vn -0.7036 -0.0992 -0.7036
vn -0.9951 -0.0992 0.0000
vn -0.7036 -0.0992 0.7036
vn -0.0000 -0.0992 0.9951
vn 0.7036 -0.0992 0.7036
vn 0.5383 -0.6484 -0.5383
vn 0.7613 -0.6484 -0.0000
vn -0.0000 -0.6484 -0.7613
vn -0.5383 -0.6484 -0.5383
vn -0.7613 -0.6484 0.0000
vn -0.5383 -0.6484 0.5383
vn 0.0000 -0.6484 0.7613
vn 0.5383 -0.6484 0.5383
vn 0.5732 -0.5855 -0.5732
vn 0.8106 -0.5855 -0.0000
vn -0.0000 -0.5855 -0.8106
vn -0.5732 -0.5855 -0.5732
vn -0.8106 -0.5855 0.0000
vn -0.5732 -0.5855 0.5732
vn -0.0000 -0.5855 0.8106
vn 0.5732 -0.5855 0.5732
vn 0.4535 0.7673 -0.4535
vn 0.6413 0.7673 -0.0000
vn -0.0000 0.7673 -0.6413
vn -0.4535 0.7673 -0.4535
vn -0.6413 0.7673 0.0000
vn -0.4535 0.7673 0.4535
vn -0.0000 0.7673 0.6413
vn 0.4535 0.7673 0.4535
vn -0.1315 0.9825 0.1315
vn -0.1860 0.9825 0.0000
vn 0.0000 0.9825 0.1860
vn 0.1315 0.9825 0.1315
vn 0.1860 0.9825 -0.0000
vn 0.1315 0.9825 -0.1315
vn 0.0000 0.9825 -0.1860
vn -0.1315 0.9825 -0.1315
vn 0.5804 0.5712 -0.5804
vn 0.8208 0.5712 -0.0000
vn 0.0000 0.5712 -0.8208
vn -0.5804 0.5712 -0.5804
vn -0.8208 0.5712 0.0000
vn -0.5804 0.5712 0.5804
vn -0.0000 0.5712 0.8208
vn 0.5804 0.5712 0.5804
vn 0.7067 0.0320 -0.7067
vn 0.9995 0.0320 0.0000
vn -0.0000 0.0320 -0.9995
vn -0.7067 0.0320 -0.7067
vn -0.9995 0.0320 0.0000
vn -0.7067 0.0320 0.7067
vn 0.0000 0.0320 0.9995
vn 0.7067 0.0320 0.7067
vn 0.5760 -0.5800 -0.5760
vn 0.8146 -0.5800 -0.0000
vn 0.0000 -0.5800 -0.8146
vn -0.5760 -0.5800 -0.5760
vn -0.8146 -0.5800 0.0000
vn -0.5760 -0.5800 0.5760
vn -0.0000 -0.5800 0.8146
vn 0.5760 -0.5800 0.5760
vn 0.5871 -0.5574 -0.5871
vn 0.8302 -0.5574 -0.0000
vn -0.0000 -0.5574 -0.8302
vn -0.5871 -0.5574 -0.5871
vn -0.8302 -0.5574 0.0000
vn -0.5871 -0.5574 0.5871
vn -0.0000 -0.5574 0.8302
vn 0.5871 -0.5574 0.5871
vn 0.4560 0.7643 -0.4560
vn 0.6449 0.7643 -0.0000
vn -0.0000 0.7643 -0.6449
vn -0.4560 0.7643 -0.4560
vn -0.6449 0.7643 0.0000
vn -0.4560 0.7643 0.4560
vn -0.0000 0.7643 0.6449
vn 0.4560 0.7643 0.4560
# 120 vertex normals

vt 0.8394 0.1606 -14.2106
vt 0.5000 0.0200 -14.2106
vt 0.1606 0.1606 -14.2106
vt 0.0200 0.5000 -14.2106
vt 0.1606 0.8394 -14.2106
vt 0.5000 0.9800 -14.2106
vt 0.8394 0.8394 -14.2106
vt 0.9800 0.5000 -14.2106
vt 0.7971 0.2097 -7.1053
vt 0.4780 0.9800 -7.1053
vt 0.0200 0.7903 7.1053
vt 0.3391 0.0200 7.1053
vt 0.9800 0.4780 -7.1053
vt 0.2097 0.7971 -7.1053
vt 0.0200 0.3391 7.1053
vt 0.7903 0.0200 7.1053
vt 0.7903 0.7971 -7.1053
vt 0.0200 0.4780 -7.1053
vt 0.2097 0.0200 7.1053
vt 0.9800 0.3391 7.1053
vt 0.3391 0.9800 -7.1053
vt 0.0200 0.2097 -7.1053
vt 0.4780 0.0200 7.1053
vt 0.7971 0.7903 7.1053
vt 0.0200 0.7903 -7.1053
vt 0.3391 0.0200 -7.1053
vt 0.7971 0.2097 7.1053
vt 0.4780 0.9800 7.1053
vt 0.0200 0.3391 -7.1053
vt 0.7903 0.0200 -7.1053
vt 0.9800 0.4780 7.1053
vt 0.2097 0.7971 7.1053
vt 0.2097 0.0200 -7.1053
vt 0.9800 0.3391 -7.1053
vt 0.7903 0.7971 7.1053
vt 0.0200 0.4780 7.1053
vt 0.4780 0.0200 -7.1053
vt 0.7971 0.7903 -7.1053
vt 0.3391 0.9800 7.1053
vt 0.0200 0.2097 7.1053
vt 0.5620 0.4380 12.7085
vt 0.5877 0.5000 12.7085
vt 0.5620 0.5620 12.7085
vt 0.5000 0.5877 12.7085
vt 0.4380 0.5620 12.7085
vt 0.4123 0.5000 12.7085
vt 0.4380 0.4380 12.7085
vt 0.5000 0.4123 12.7085
vt 0.8797 0.2109 5.7649
vt 0.2909 0.9800 -1.3068
vt 0.0200 0.7094 5.7649
vt 0.5478 0.0200 -5.7649
vt 0.9800 0.3402 -3.5359
vt 0.1155 0.6983 -3.5359
vt 0.0200 0.3410 3.5359
vt 0.7949 0.0200 3.5359
vt 0.7891 0.8797 5.7649
vt 0.0200 0.2909 -1.3068
vt 0.2906 0.0200 5.7649
vt 0.9800 0.5478 -5.7649
vt 0.3781 0.9800 -3.5359
vt 0.0200 0.1155 -3.5359
vt 0.3773 0.0200 3.5359
vt 0.6983 0.7949 3.5359
vt 0.0200 0.7891 5.7649
vt 0.6088 0.0200 -1.3068
vt 0.8797 0.2906 5.7649
vt 0.3519 0.9800 -5.7649
vt 0.0200 0.6088 -1.3068
vt 0.7891 0.0200 5.7649
vt 0.9800 0.3519 -5.7649
vt 0.2906 0.8797 5.7649
vt 0.1155 0.0200 -3.5359
vt 0.9800 0.3781 -3.5359
vt 0.7949 0.6983 3.5359
vt 0.0200 0.3773 3.5359
vt 0.3402 0.0200 -3.5359
vt 0.6983 0.8845 -3.5359
vt 0.3410 0.9800 3.5359
vt 0.0200 0.2051 3.5359
vt 0.9303 0.5000 -11.5298
vt 0.8042 0.8042 -11.5298
vt 0.5361 0.5361 -9.0245
vt 0.5511 0.5000 -9.0245
vt 0.5000 0.9303 -11.5298
vt 0.5000 0.5511 -9.0245
vt 0.1958 0.8042 -11.5298
vt 0.4639 0.5361 -9.0245
vt 0.0697 0.5000 -11.5298
vt 0.4489 0.5000 -9.0245
vt 0.1958 0.1958 -11.5298
vt 0.4639 0.4639 -9.0245
vt 0.5000 0.0697 -11.5298
vt 0.5000 0.4489 -9.0245
vt 0.8042 0.1958 -11.5298
vt 0.5361 0.4639 -9.0245
vt 0.5452 0.0200 -4.5123
vt 0.9414 0.2805 4.5123
vt 0.6462 0.9800 -2.7097
vt 0.0200 0.5683 4.5123
vt 0.9041 0.7915 3.6110
vt 0.4490 0.9800 3.6110
vt 0.0200 0.3180 -3.6110
vt 0.7394 0.0200 -3.6110
vt 0.9800 0.5452 -4.5123
vt 0.7195 0.9414 4.5123
vt 0.0200 0.6462 -2.7097
vt 0.4317 0.0200 4.5123
vt 0.2085 0.9041 3.6110
vt 0.0200 0.4490 3.6110
vt 0.6820 0.0200 -3.6110
vt 0.9800 0.7394 -3.6110
vt 0.4162 0.9800 -4.5123
vt 0.0200 0.7195 4.5123
vt 0.3152 0.0200 -2.7097
vt 0.9414 0.4317 4.5123
vt 0.7195 0.0200 4.5123
vt 0.9800 0.4162 -4.5123
vt 0.4317 0.9414 4.5123
vt 0.0200 0.3152 -2.7097
vt 0.4490 0.0200 3.6110
vt 0.9041 0.2085 3.6110
vt 0.7394 0.9800 -3.6110
vt 0.0200 0.6820 -3.6110
vt 0.7915 0.0200 3.6110
vt 0.9800 0.4751 3.6110
vt 0.3180 0.9041 -3.6110
vt 0.0200 0.1848 -3.6110
vt 0.9800 0.5990 3.6110
vt 0.7723 0.8556 -3.6110
vt 0.0200 0.1033 2.6501
vt 0.0874 0.0200 3.6110
vt 0.8556 0.7723 -3.6110
vt 0.5990 0.9800 3.6110
vt 0.0200 0.0874 3.6110
vt 0.1033 0.0200 2.6501
vt 0.3132 0.9800 -3.6110
vt 0.0200 0.9491 3.6110
vt 0.2180 0.0200 3.6110
vt 0.3132 0.0300 2.6501
vt 0.2277 0.8556 -3.6110
vt 0.0200 0.5990 3.6110
vt 0.9126 0.0200 3.6110
vt 0.9800 0.1033 2.6501
vt 0.0200 0.3132 -3.6110
vt 0.0509 0.0200 3.6110
vt 0.9800 0.2180 3.6110
vt 0.9700 0.3132 2.6501
vt 0.0200 0.2277 -3.6110
vt 0.2766 0.0200 3.6110
vt 0.8556 0.9126 3.6110
vt 0.7723 0.9800 2.6501
vt 0.0200 0.0200 -3.6110
vt 0.3132 0.0509 3.6110
vt 0.1152 0.9800 3.6110
vt 0.0200 0.9700 2.6501
vt 0.9491 0.0200 3.6110
vt 0.9800 0.3132 -3.6110
vt 0.0300 0.3132 2.6501
vt 0.0200 0.2180 3.6110
vt 0.5262 0.5000 -0.9609
vt 0.5185 0.5185 -0.9609
vt 0.7239 0.7239 0.3910
vt 0.8167 0.5000 0.3910
vt 0.5000 0.5262 -0.9609
vt 0.5000 0.8167 0.3910
vt 0.4815 0.5185 -0.9609
vt 0.2761 0.7239 0.3910
vt 0.4738 0.5000 -0.9609
vt 0.1833 0.5000 0.3910
vt 0.4815 0.4815 -0.9609
vt 0.2761 0.2761 0.3910
vt 0.5000 0.4738 -0.9609
vt 0.5000 0.1833 0.3910
vt 0.5185 0.4815 -0.9609
vt 0.7239 0.2761 0.3910
vt 0.7005 0.1614 0.1955
vt 0.3615 0.9800 0.1955
vt 0.0200 0.8386 -0.1955
vt 0.3591 0.0200 -0.1955
vt 0.9800 0.3615 0.1955
vt 0.1614 0.7005 0.1955
vt 0.0200 0.3591 -0.1955
vt 0.8386 0.0200 -0.1955
vt 0.8386 0.7005 0.1955
vt 0.0200 0.3615 0.1955
vt 0.1614 0.0200 -0.1955
vt 0.9800 0.3591 -0.1955
vt 0.3591 0.9800 0.1955
vt 0.0200 0.1614 0.1955
vt 0.3615 0.0200 -0.1955
vt 0.7005 0.8386 -0.1955
vt 0.0200 0.8386 0.1955
vt 0.3591 0.0200 0.1955
vt 0.7005 0.1614 -0.1955
vt 0.3615 0.9800 -0.1955
vt 0.0200 0.3591 0.1955
vt 0.8386 0.0200 0.1955
vt 0.9800 0.3615 -0.1955
vt 0.1614 0.7005 -0.1955
vt 0.1614 0.0200 0.1955
vt 0.9800 0.3591 0.1955
vt 0.8386 0.7005 -0.1955
vt 0.0200 0.3615 -0.1955
vt 0.3615 0.0200 0.1955
vt 0.7005 0.8386 0.1955
vt 0.3591 0.9800 -0.1955
vt 0.0200 0.1614 -0.1955
vt 0.8167 0.5000 3.6957
vt 0.7239 0.7239 3.6957
vt 0.6254 0.6254 1.2923
vt 0.6774 0.5000 1.2923
vt 0.5000 0.8167 3.6957
vt 0.5000 0.6774 1.2923
vt 0.2761 0.7239 3.6957
vt 0.3746 0.6254 1.2923
vt 0.1833 0.5000 3.6957
vt 0.3226 0.5000 1.2923
vt 0.2761 0.2761 3.6957
vt 0.3746 0.3746 1.2923
vt 0.5000 0.1833 3.6957
vt 0.5000 0.3226 1.2923
vt 0.7239 0.2761 3.6957
vt 0.6254 0.3746 1.2923
vt 0.5301 0.5301 2.6442
vt 0.5426 0.5000 2.6442
vt 0.5000 0.5426 2.6442
vt 0.4699 0.5301 2.6442
vt 0.4574 0.5000 2.6442
vt 0.4699 0.4699 2.6442
vt 0.5000 0.4574 2.6442
vt 0.5301 0.4699 2.6442
vt 0.0521 0.5223 -0.1800
vt 0.0200 0.2064 -2.8242
vt 0.9290 0.0200 -2.8242
vt 0.9800 0.5223 2.8242
vt 0.0200 0.2622 -0.1800
vt 0.2175 0.0200 -2.8242
vt 0.9800 0.5230 -2.8242
vt 0.6659 0.9080 2.8242
vt 0.0200 0.0521 -0.1800
vt 0.3359 0.0200 -2.8242
vt 0.5223 0.9290 -2.8242
vt 0.0200 0.9800 2.8242
vt 0.6659 0.0200 -0.1800
vt 0.9080 0.2175 -2.8242
vt 0.4051 0.9800 -2.8242
vt 0.0200 0.6659 2.8242
vt 0.9479 0.0200 -0.1800
vt 0.9800 0.3359 -2.8242
vt 0.0710 0.5223 -2.8242
vt 0.0200 0.0200 2.8242
vt 0.9800 0.6659 -0.1800
vt 0.7825 0.9080 -2.8242
vt 0.0200 0.4051 -2.8242
vt 0.3341 0.0200 2.8242
vt 0.5223 0.9479 -0.1800
vt 0.2064 0.9800 -2.8242
vt 0.0200 0.0710 -2.8242
vt 0.5223 0.0200 2.8242
vt 0.2622 0.9800 -0.1800
vt 0.0200 0.7825 -2.8242
vt 0.5230 0.0200 -2.8242
vt 0.9080 0.3341 2.8242
vt 0.9800 0.5514 -5.1525
vt 0.7598 0.8357 0.4959
vt 0.0200 0.0958 5.1525
vt 0.0787 0.0200 -5.1525
vt 0.8357 0.7598 0.4959
vt 0.5514 0.9800 -5.1525
vt 0.0200 0.0787 -5.1525
vt 0.0958 0.0200 5.1525
vt 0.3435 0.9800 0.4959
vt 0.0200 0.9389 -5.1525
vt 0.2572 0.0200 -5.1525
vt 0.3435 0.0310 5.1525
vt 0.2402 0.8357 0.4959
vt 0.0200 0.5514 -5.1525
vt 0.9213 0.0200 -5.1525
vt 0.9800 0.0958 5.1525
vt 0.0200 0.3435 0.4959
vt 0.0611 0.0200 -5.1525
vt 0.9800 0.2572 -5.1525
vt 0.9690 0.3435 5.1525
vt 0.0200 0.2402 0.4959
vt 0.3042 0.0200 -5.1525
vt 0.8357 0.9213 -5.1525
vt 0.7598 0.9800 5.1525
vt 0.0200 0.0200 0.4959
vt 0.3435 0.0611 -5.1525
vt 0.1063 0.9800 -5.1525
vt 0.0200 0.9690 5.1525
vt 0.9389 0.0200 -5.1525
vt 0.9800 0.3435 0.4959
vt 0.0310 0.3435 5.1525
vt 0.0200 0.2572 -5.1525
vt 0.5181 0.5000 10.3051
vt 0.5128 0.5128 10.3051
vt 0.6253 0.6253 11.5068
vt 0.6772 0.5000 11.5068
vt 0.5000 0.5181 10.3051
vt 0.5000 0.6772 11.5068
vt 0.4872 0.5128 10.3051
vt 0.3747 0.6253 11.5068
vt 0.4819 0.5000 10.3051
vt 0.3228 0.5000 11.5068
vt 0.4872 0.4872 10.3051
vt 0.3747 0.3747 11.5068
vt 0.5000 0.4819 10.3051
vt 0.5000 0.3228 11.5068
vt 0.5128 0.4872 10.3051
vt 0.6253 0.3747 11.5068
vt 0.8049 0.2136 5.7534
vt 0.4874 0.9800 5.7534
vt 0.0200 0.7864 -5.7534
vt 0.3374 0.0200 -5.7534
vt 0.9800 0.4874 5.7534
vt 0.2136 0.8049 5.7534
vt 0.0200 0.3374 -5.7534
vt 0.7864 0.0200 -5.7534
vt 0.7864 0.8049 5.7534
vt 0.0200 0.4874 5.7534
vt 0.2136 0.0200 -5.7534
vt 0.9800 0.3374 -5.7534
vt 0.3374 0.9800 5.7534
vt 0.0200 0.2136 5.7534
vt 0.4874 0.0200 -5.7534
vt 0.8049 0.7864 -5.7534
vt 0.0200 0.7864 5.7534
vt 0.3374 0.0200 5.7534
vt 0.8049 0.2136 -5.7534
vt 0.4874 0.9800 -5.7534
vt 0.0200 0.3374 5.7534
vt 0.7864 0.0200 5.7534
vt 0.9800 0.4874 -5.7534
vt 0.2136 0.8049 -5.7534
vt 0.2136 0.0200 5.7534
vt 0.9800 0.3374 5.7534
vt 0.7864 0.8049 -5.7534
vt 0.0200 0.4874 -5.7534
vt 0.4874 0.0200 5.7534
vt 0.8049 0.7864 5.7534
vt 0.3374 0.9800 -5.7534
vt 0.0200 0.2136 -5.7534
vt 0.6772 0.5000 14.2106
vt 0.6253 0.6253 14.2106
vt 0.5000 0.6772 14.2106
vt 0.3747 0.6253 14.2106
vt 0.3228 0.5000 14.2106
vt 0.3747 0.3747 14.2106
vt 0.5000 0.3228 14.2106
vt 0.6253 0.3747 14.2106
# 352 texture coords

o Cylinder001
g Cylinder001
usemtl Material__25
s 1
f 1/1/1 2/2/2 3/3/3 4/4/4 5/5/5 6/6/6 7/7/7 8/8/8 
s 8
f 8/9/8 7/10/7 9/11/9 10/12/10 
f 7/13/7 6/14/6 11/15/11 9/16/9 
f 6/17/6 5/18/5 12/19/12 11/20/11 
f 5/21/5 4/22/4 13/23/13 12/24/12 
f 4/25/4 3/26/3 14/27/14 13/28/13 
f 3/29/3 2/30/2 15/31/15 14/32/14 
f 2/33/2 1/34/1 16/35/16 15/36/15 
f 1/37/1 8/38/8 10/39/10 16/40/16 
s 1
f 17/41/17 18/42/18 19/43/19 20/44/20 21/45/21 22/46/22 23/47/23 24/48/24 
s off
f 10/49/10 9/50/9 25/51/25 26/52/26 
f 9/53/9 11/54/11 27/55/27 25/56/25 
f 11/57/11 12/58/12 28/59/28 27/60/27 
f 12/61/12 13/62/13 29/63/29 28/64/28 
f 13/65/13 14/66/14 30/67/30 29/68/29 
f 14/69/14 15/70/15 31/71/31 30/72/30 
f 15/73/15 16/74/16 32/75/32 31/76/31 
f 16/77/16 10/78/10 26/79/26 32/80/32 
f 26/81/26 25/82/25 33/83/33 34/84/34 
f 25/82/25 27/85/27 35/86/35 33/83/33 
f 27/85/27 28/87/28 36/88/36 35/86/35 
f 28/87/28 29/89/29 37/90/37 36/88/36 
f 29/89/29 30/91/30 38/92/38 37/90/37 
f 30/91/30 31/93/31 39/94/39 38/92/38 
f 31/93/31 32/95/32 40/96/40 39/94/39 
f 32/95/32 26/81/26 34/84/34 40/96/40 
f 34/97/34 33/98/33 41/99/41 42/100/42 
f 33/101/33 35/102/35 43/103/43 41/104/41 
f 35/105/35 36/106/36 44/107/44 43/108/43 
f 36/109/36 37/110/37 45/111/45 44/112/44 
f 37/113/37 38/114/38 46/115/46 45/116/45 
f 38/117/38 39/118/39 47/119/47 46/120/46 
f 39/121/39 40/122/40 48/123/48 47/124/47 
f 40/125/40 34/126/34 42/127/42 48/128/48 
f 42/129/42 41/130/41 49/131/49 50/132/50 
f 41/133/41 43/134/43 51/135/51 49/136/49 
f 43/137/43 44/138/44 52/139/52 51/140/51 
f 44/141/44 45/142/45 53/143/53 52/144/52 
f 45/145/45 46/146/46 54/147/54 53/148/53 
f 46/149/46 47/150/47 55/151/55 54/152/54 
f 47/153/47 48/154/48 56/155/56 55/156/55 
f 48/157/48 42/158/42 50/159/50 56/160/56 
f 50/161/50 49/162/49 57/163/57 58/164/58 
f 49/162/49 51/165/51 59/166/59 57/163/57 
f 51/165/51 52/167/52 60/168/60 59/166/59 
f 52/167/52 53/169/53 61/170/61 60/168/60 
f 53/169/53 54/171/54 62/172/62 61/170/61 
f 54/171/54 55/173/55 63/174/63 62/172/62 
f 55/173/55 56/175/56 64/176/64 63/174/63 
f 56/175/56 50/161/50 58/164/58 64/176/64 
f 58/177/58 57/178/57 65/179/65 66/180/66 
f 57/181/57 59/182/59 67/183/67 65/184/65 
f 59/185/59 60/186/60 68/187/68 67/188/67 
f 60/189/60 61/190/61 69/191/69 68/192/68 
f 61/193/61 62/194/62 70/195/70 69/196/69 
f 62/197/62 63/198/63 71/199/71 70/200/70 
f 63/201/63 64/202/64 72/203/72 71/204/71 
f 64/205/64 58/206/58 66/207/66 72/208/72 
f 66/209/66 65/210/65 73/211/73 74/212/74 
f 65/210/65 67/213/67 75/214/75 73/211/73 
f 67/213/67 68/215/68 76/216/76 75/214/75 
f 68/215/68 69/217/69 77/218/77 76/216/76 
f 69/217/69 70/219/70 78/220/78 77/218/77 
f 70/219/70 71/221/71 79/222/79 78/220/78 
f 71/221/71 72/223/72 80/224/80 79/222/79 
f 72/223/72 66/209/66 74/212/74 80/224/80 
f 74/212/74 73/211/73 81/225/81 82/226/82 
f 73/211/73 75/214/75 83/227/83 81/225/81 
f 75/214/75 76/216/76 84/228/84 83/227/83 
f 76/216/76 77/218/77 85/229/85 84/228/84 
f 77/218/77 78/220/78 86/230/86 85/229/85 
f 78/220/78 79/222/79 87/231/87 86/230/86 
f 79/222/79 80/224/80 88/232/88 87/231/87 
f 80/224/80 74/212/74 82/226/82 88/232/88 
f 82/233/82 81/234/81 89/235/89 90/236/90 
f 81/237/81 83/238/83 91/239/91 89/240/89 
f 83/241/83 84/242/84 92/243/92 91/244/91 
f 84/245/84 85/246/85 93/247/93 92/248/92 
f 85/249/85 86/250/86 94/251/94 93/252/93 
f 86/253/86 87/254/87 95/255/95 94/256/94 
f 87/257/87 88/258/88 96/259/96 95/260/95 
f 88/261/88 82/262/82 90/263/90 96/264/96 
f 90/265/90 89/266/89 97/267/97 98/268/98 
f 89/269/89 91/270/91 99/271/99 97/272/97 
f 91/273/91 92/274/92 100/275/100 99/276/99 
f 92/277/92 93/278/93 101/279/101 100/280/100 
f 93/281/93 94/282/94 102/283/102 101/284/101 
f 94/285/94 95/286/95 103/287/103 102/288/102 
f 95/289/95 96/290/96 104/291/104 103/292/103 
f 96/293/96 90/294/90 98/295/98 104/296/104 
f 98/297/98 97/298/97 105/299/105 106/300/106 
f 97/298/97 99/301/99 107/302/107 105/299/105 
f 99/301/99 100/303/100 108/304/108 107/302/107 
f 100/303/100 101/305/101 109/306/109 108/304/108 
f 101/305/101 102/307/102 110/308/110 109/306/109 
f 102/307/102 103/309/103 111/310/111 110/308/110 
f 103/309/103 104/311/104 112/312/112 111/310/111 
f 104/311/104 98/297/98 106/300/106 112/312/112 
f 106/313/106 105/314/105 113/315/113 114/316/114 
f 105/317/105 107/318/107 115/319/115 113/320/113 
f 107/321/107 108/322/108 116/323/116 115/324/115 
f 108/325/108 109/326/109 117/327/117 116/328/116 
f 109/329/109 110/330/110 118/331/118 117/332/117 
f 110/333/110 111/334/111 119/335/119 118/336/118 
f 111/337/111 112/338/112 120/339/120 119/340/119 
f 112/341/112 106/342/106 114/343/114 120/344/120 
f 114/345/114 113/346/113 19/43/19 18/42/18 
f 113/346/113 115/347/115 20/44/20 19/43/19 
f 115/347/115 116/348/116 21/45/21 20/44/20 
f 116/348/116 117/349/117 22/46/22 21/45/21 
f 117/349/117 118/350/118 23/47/23 22/46/22 
f 118/350/118 119/351/119 24/48/24 23/47/23 
f 119/351/119 120/352/120 17/41/17 24/48/24 
f 120/352/120 114/345/114 18/42/18 17/41/17 
# 114 polygons

