# 3ds Max Wavefront OBJ Exporter v0.97b - (c)2007 guruware
# File Created: 22.02.2020 09:23:49

newmtl Material__27
	Ns 10.0000
	Ni 1.5000
	d 1.0000
	Tr 0.0000
	Tf 1.0000 1.0000 1.0000 
	illum 2
	Ka 0.5880 0.5880 0.5880
	Kd 0.5880 0.5880 0.5880
	Ks 0.0000 0.0000 0.0000
	Ke 0.0000 0.0000 0.0000
	map_Ka C:\Users\Dylan\Desktop\Test\Realm\Assets\Textures\Snow.png
	map_Kd C:\Users\Dylan\Desktop\Test\Realm\Assets\Textures\Snow.png

newmtl wire_023016012
	Ns 32
	d 1
	Tr 0
	Tf 1 1 1
	illum 2
	Ka 0.0902 0.0627 0.0471
	Kd 0.0902 0.0627 0.0471
	Ks 0.3500 0.3500 0.3500

newmtl wire_098063047
	Ns 32
	d 1
	Tr 0
	Tf 1 1 1
	illum 2
	Ka 0.3843 0.2471 0.1843
	Kd 0.3843 0.2471 0.1843
	Ks 0.3500 0.3500 0.3500

newmtl Material__29
	Ns 10.0000
	Ni 1.5000
	d 1.0000
	Tr 0.0000
	Tf 1.0000 1.0000 1.0000 
	illum 2
	Ka 0.5880 0.5880 0.5880
	Kd 0.5880 0.5880 0.5880
	Ks 0.0000 0.0000 0.0000
	Ke 0.0000 0.0000 0.0000
	map_Ka C:\Users\Dylan\Desktop\Test\Realm\Assets\Textures\bluetile.png
	map_Kd C:\Users\Dylan\Desktop\Test\Realm\Assets\Textures\bluetile.png

newmtl Material__24
	Ns 10.0000
	Ni 1.5000
	d 1.0000
	Tr 0.0000
	Tf 1.0000 1.0000 1.0000 
	illum 2
	Ka 0.5880 0.5880 0.5880
	Kd 0.5880 0.5880 0.5880
	Ks 0.0000 0.0000 0.0000
	Ke 0.0000 0.0000 0.0000
	map_Ka C:\Users\Dylan\Desktop\Test\Realm\Assets\Textures\WallTexture.png
	map_Kd C:\Users\Dylan\Desktop\Test\Realm\Assets\Textures\WallTexture.png

newmtl wire_237157053
	Ns 32
	d 1
	Tr 0
	Tf 1 1 1
	illum 2
	Ka 0.9294 0.6157 0.2078
	Kd 0.9294 0.6157 0.2078
	Ks 0.3500 0.3500 0.3500

newmtl Material__25
	Ns 10.0000
	Ni 1.5000
	d 1.0000
	Tr 0.0000
	Tf 1.0000 1.0000 1.0000 
	illum 2
	Ka 0.5880 0.5880 0.5880
	Kd 0.5880 0.5880 0.5880
	Ks 0.0000 0.0000 0.0000
	Ke 0.0000 0.0000 0.0000
	map_Ka C:\Users\Dylan\Desktop\Test\Realm\Assets\Textures\TreeBark.png
	map_Kd C:\Users\Dylan\Desktop\Test\Realm\Assets\Textures\TreeBark.png

newmtl Material__28
	Ns 10.0000
	Ni 1.5000
	d 1.0000
	Tr 0.0000
	Tf 1.0000 1.0000 1.0000 
	illum 2
	Ka 0.5880 0.5880 0.5880
	Kd 0.5880 0.5880 0.5880
	Ks 0.0000 0.0000 0.0000
	Ke 0.0000 0.0000 0.0000
	map_Ka C:\Users\Dylan\Desktop\Test\Realm\Assets\Textures\WoodenPlanksTest.png
	map_Kd C:\Users\Dylan\Desktop\Test\Realm\Assets\Textures\WoodenPlanksTest.png

newmtl Material__26
	Ns 10.0000
	Ni 1.5000
	d 1.0000
	Tr 0.0000
	Tf 1.0000 1.0000 1.0000 
	illum 2
	Ka 0.5880 0.5880 0.5880
	Kd 0.5880 0.5880 0.5880
	Ks 0.0000 0.0000 0.0000
	Ke 0.0000 0.0000 0.0000
	map_Ka C:\Users\Dylan\Desktop\Test\Realm\Assets\Textures\WoodBark.png
	map_Kd C:\Users\Dylan\Desktop\Test\Realm\Assets\Textures\WoodBark.png
