# 3ds Max Wavefront OBJ Exporter v0.97b - (c)2007 guruware
# File Created: 02.02.2020 19:45:57

newmtl wire_177148027
	Ns 32
	d 1
	Tr 0
	Tf 1 1 1
	illum 2
	Ka 0.6941 0.5804 0.1059
	Kd 0.6941 0.5804 0.1059
	Ks 0.3500 0.3500 0.3500
